^C:\USERS\DJOINER\DOCUMENTS\BITBUCKET_NEW\DATAWORLD\GALAXSEEUNITY\DLLVISUALSTUDIO\UNITYDLLEXAMPLE\STDAFX.CPP
C:\USERS\DJOINER\DOCUMENTS\BITBUCKET_NEW\DATAWORLD\GALAXSEEUNITY\DLLVISUALSTUDIO\UNITYDLLEXAMPLE\X64\RELEASE\UNITYDLLEXAMPLE.PCH
C:\USERS\DJOINER\DOCUMENTS\BITBUCKET_NEW\DATAWORLD\GALAXSEEUNITY\DLLVISUALSTUDIO\UNITYDLLEXAMPLE\X64\RELEASE\VC141.PDB
C:\USERS\DJOINER\DOCUMENTS\BITBUCKET_NEW\DATAWORLD\GALAXSEEUNITY\DLLVISUALSTUDIO\UNITYDLLEXAMPLE\X64\RELEASE\STDAFX.OBJ
^C:\USERS\DJOINER\DOCUMENTS\BITBUCKET_NEW\DATAWORLD\GALAXSEEUNITY\DLLVISUALSTUDIO\UNITYDLLEXAMPLE\DLLMAIN.CPP
C:\USERS\DJOINER\DOCUMENTS\BITBUCKET_NEW\DATAWORLD\GALAXSEEUNITY\DLLVISUALSTUDIO\UNITYDLLEXAMPLE\X64\RELEASE\VC141.PDB
C:\USERS\DJOINER\DOCUMENTS\BITBUCKET_NEW\DATAWORLD\GALAXSEEUNITY\DLLVISUALSTUDIO\UNITYDLLEXAMPLE\X64\RELEASE\DLLMAIN.OBJ
^C:\USERS\DJOINER\DOCUMENTS\BITBUCKET_NEW\DATAWORLD\GALAXSEEUNITY\DLLVISUALSTUDIO\UNITYDLLEXAMPLE\UNITYDLLEXAMPLE.CPP
C:\USERS\DJOINER\DOCUMENTS\BITBUCKET_NEW\DATAWORLD\GALAXSEEUNITY\DLLVISUALSTUDIO\UNITYDLLEXAMPLE\X64\RELEASE\VC141.PDB
C:\USERS\DJOINER\DOCUMENTS\BITBUCKET_NEW\DATAWORLD\GALAXSEEUNITY\DLLVISUALSTUDIO\UNITYDLLEXAMPLE\X64\RELEASE\UNITYDLLEXAMPLE.OBJ
^C:\USERS\CDS\DOCUMENTS\DATAWORLD\GALAXSEEUNITY\DLLVISUALSTUDIO\UNITYDLLEXAMPLE\STDAFX.CPP
C:\USERS\CDS\DOCUMENTS\DATAWORLD\GALAXSEEUNITY\DLLVISUALSTUDIO\UNITYDLLEXAMPLE\X64\RELEASE\UNITYDLLEXAMPLE.PCH
C:\USERS\CDS\DOCUMENTS\DATAWORLD\GALAXSEEUNITY\DLLVISUALSTUDIO\UNITYDLLEXAMPLE\X64\RELEASE\VC141.PDB
C:\USERS\CDS\DOCUMENTS\DATAWORLD\GALAXSEEUNITY\DLLVISUALSTUDIO\UNITYDLLEXAMPLE\X64\RELEASE\STDAFX.OBJ
^C:\USERS\CDS\DOCUMENTS\DATAWORLD\GALAXSEEUNITY\DLLVISUALSTUDIO\UNITYDLLEXAMPLE\DLLMAIN.CPP
C:\USERS\CDS\DOCUMENTS\DATAWORLD\GALAXSEEUNITY\DLLVISUALSTUDIO\UNITYDLLEXAMPLE\X64\RELEASE\VC141.PDB
C:\USERS\CDS\DOCUMENTS\DATAWORLD\GALAXSEEUNITY\DLLVISUALSTUDIO\UNITYDLLEXAMPLE\X64\RELEASE\DLLMAIN.OBJ
^C:\USERS\CDS\DOCUMENTS\DATAWORLD\GALAXSEEUNITY\DLLVISUALSTUDIO\UNITYDLLEXAMPLE\UNITYDLLEXAMPLE.CPP
C:\USERS\CDS\DOCUMENTS\DATAWORLD\GALAXSEEUNITY\DLLVISUALSTUDIO\UNITYDLLEXAMPLE\X64\RELEASE\VC141.PDB
C:\USERS\CDS\DOCUMENTS\DATAWORLD\GALAXSEEUNITY\DLLVISUALSTUDIO\UNITYDLLEXAMPLE\X64\RELEASE\UNITYDLLEXAMPLE.OBJ
