^C:\USERS\DJOINER\DOCUMENTS\BITBUCKET_NEW\DATAWORLD\GALAXSEEUNITY\DLLVISUALSTUDIO\UNITYDLLEXAMPLE\X64\RELEASE\DLLMAIN.OBJ|C:\USERS\DJOINER\DOCUMENTS\BITBUCKET_NEW\DATAWORLD\GALAXSEEUNITY\DLLVISUALSTUDIO\UNITYDLLEXAMPLE\X64\RELEASE\STDAFX.OBJ|C:\USERS\DJOINER\DOCUMENTS\BITBUCKET_NEW\DATAWORLD\GALAXSEEUNITY\DLLVISUALSTUDIO\UNITYDLLEXAMPLE\X64\RELEASE\UNITYDLLEXAMPLE.OBJ
/OUT:"C:\USERS\DJOINER\DOCUMENTS\BITBUCKET_NEW\DATAWORLD\GALAXSEEUNITY\DLLVISUALSTUDIO\X64\RELEASE\UNITYDLLEXAMPLE.DLL" /INCREMENTAL:NO /NOLOGO KERNEL32.LIB USER32.LIB GDI32.LIB WINSPOOL.LIB COMDLG32.LIB ADVAPI32.LIB SHELL32.LIB OLE32.LIB OLEAUT32.LIB UUID.LIB ODBC32.LIB ODBCCP32.LIB /MANIFEST /MANIFESTUAC:"level='asInvoker' uiAccess='false'" /manifest:embed /DEBUG:FULL /PDB:"C:\USERS\DJOINER\DOCUMENTS\BITBUCKET_NEW\DATAWORLD\GALAXSEEUNITY\DLLVISUALSTUDIO\X64\RELEASE\UNITYDLLEXAMPLE.PDB" /SUBSYSTEM:WINDOWS /OPT:REF /OPT:ICF /LTCG:incremental /TLBID:1 /DYNAMICBASE /NXCOMPAT /IMPLIB:"C:\USERS\DJOINER\DOCUMENTS\BITBUCKET_NEW\DATAWORLD\GALAXSEEUNITY\DLLVISUALSTUDIO\X64\RELEASE\UNITYDLLEXAMPLE.LIB" /MACHINE:X64 /DLL X64\RELEASE\DLLMAIN.OBJX64\RELEASE\STDAFX.OBJX64\RELEASE\UNITYDLLEXAMPLE.OBJ
^C:\USERS\CDS\DOCUMENTS\DATAWORLD\GALAXSEEUNITY\DLLVISUALSTUDIO\UNITYDLLEXAMPLE\X64\RELEASE\DLLMAIN.OBJ|C:\USERS\CDS\DOCUMENTS\DATAWORLD\GALAXSEEUNITY\DLLVISUALSTUDIO\UNITYDLLEXAMPLE\X64\RELEASE\STDAFX.OBJ|C:\USERS\CDS\DOCUMENTS\DATAWORLD\GALAXSEEUNITY\DLLVISUALSTUDIO\UNITYDLLEXAMPLE\X64\RELEASE\UNITYDLLEXAMPLE.OBJ
/OUT:"C:\USERS\CDS\DOCUMENTS\DATAWORLD\GALAXSEEUNITY\DLLVISUALSTUDIO\X64\RELEASE\UNITYDLLEXAMPLE.DLL" /INCREMENTAL:NO /NOLOGO KERNEL32.LIB USER32.LIB GDI32.LIB WINSPOOL.LIB COMDLG32.LIB ADVAPI32.LIB SHELL32.LIB OLE32.LIB OLEAUT32.LIB UUID.LIB ODBC32.LIB ODBCCP32.LIB /MANIFEST /MANIFESTUAC:"level='asInvoker' uiAccess='false'" /manifest:embed /DEBUG:FULL /PDB:"C:\USERS\CDS\DOCUMENTS\DATAWORLD\GALAXSEEUNITY\DLLVISUALSTUDIO\X64\RELEASE\UNITYDLLEXAMPLE.PDB" /SUBSYSTEM:WINDOWS /OPT:REF /OPT:ICF /LTCG:incremental /TLBID:1 /DYNAMICBASE /NXCOMPAT /IMPLIB:"C:\USERS\CDS\DOCUMENTS\DATAWORLD\GALAXSEEUNITY\DLLVISUALSTUDIO\X64\RELEASE\UNITYDLLEXAMPLE.LIB" /MACHINE:X64 /DLL X64\RELEASE\DLLMAIN.OBJX64\RELEASE\STDAFX.OBJX64\RELEASE\UNITYDLLEXAMPLE.OBJ
