^C:\USERS\CDS\DOCUMENTS\GALAXSEEUNITY\GALAXSEEUNITY\SUMMER2018\DLLVISUALSTUDIO - PPPM\UNITYDLLEXAMPLE\CUBEINTERP.CPP|C:\USERS\CDS\DOCUMENTS\GALAXSEEUNITY\GALAXSEEUNITY\SUMMER2018\DLLVISUALSTUDIO - PPPM\UNITYDLLEXAMPLE\MEM.CPP|C:\USERS\CDS\DOCUMENTS\GALAXSEEUNITY\GALAXSEEUNITY\SUMMER2018\DLLVISUALSTUDIO - PPPM\UNITYDLLEXAMPLE\PPPM.CPP|C:\USERS\CDS\DOCUMENTS\GALAXSEEUNITY\GALAXSEEUNITY\SUMMER2018\DLLVISUALSTUDIO - PPPM\UNITYDLLEXAMPLE\RAND_TOOLS.CPP|C:\USERS\CDS\DOCUMENTS\GALAXSEEUNITY\GALAXSEEUNITY\SUMMER2018\DLLVISUALSTUDIO - PPPM\UNITYDLLEXAMPLE\UNITYDLLEXAMPLE.CPP
C:\USERS\CDS\DOCUMENTS\GALAXSEEUNITY\GALAXSEEUNITY\SUMMER2018\DLLVISUALSTUDIO - PPPM\UNITYDLLEXAMPLE\X64\RELEASE\VC141.PDB
C:\USERS\CDS\DOCUMENTS\GALAXSEEUNITY\GALAXSEEUNITY\SUMMER2018\DLLVISUALSTUDIO - PPPM\UNITYDLLEXAMPLE\X64\RELEASE\UNITYDLLEXAMPLE.OBJ
C:\USERS\CDS\DOCUMENTS\GALAXSEEUNITY\GALAXSEEUNITY\SUMMER2018\DLLVISUALSTUDIO - PPPM\UNITYDLLEXAMPLE\X64\RELEASE\RAND_TOOLS.OBJ
C:\USERS\CDS\DOCUMENTS\GALAXSEEUNITY\GALAXSEEUNITY\SUMMER2018\DLLVISUALSTUDIO - PPPM\UNITYDLLEXAMPLE\X64\RELEASE\PPPM.OBJ
C:\USERS\CDS\DOCUMENTS\GALAXSEEUNITY\GALAXSEEUNITY\SUMMER2018\DLLVISUALSTUDIO - PPPM\UNITYDLLEXAMPLE\X64\RELEASE\MEM.OBJ
C:\USERS\CDS\DOCUMENTS\GALAXSEEUNITY\GALAXSEEUNITY\SUMMER2018\DLLVISUALSTUDIO - PPPM\UNITYDLLEXAMPLE\X64\RELEASE\CUBEINTERP.OBJ
^C:\USERS\CDS\DOCUMENTS\GALAXSEEUNITY\GALAXSEEUNITY\SUMMER2018\DLLVISUALSTUDIO - PPPM\UNITYDLLEXAMPLE\CUBEINTERP.CPP
C:\USERS\CDS\DOCUMENTS\GALAXSEEUNITY\GALAXSEEUNITY\SUMMER2018\DLLVISUALSTUDIO - PPPM\UNITYDLLEXAMPLE\X64\RELEASE\VC141.PDB
^C:\USERS\CDS\DOCUMENTS\GALAXSEEUNITY\GALAXSEEUNITY\SUMMER2018\DLLVISUALSTUDIO - PPPM\UNITYDLLEXAMPLE\MEM.CPP
C:\USERS\CDS\DOCUMENTS\GALAXSEEUNITY\GALAXSEEUNITY\SUMMER2018\DLLVISUALSTUDIO - PPPM\UNITYDLLEXAMPLE\X64\RELEASE\VC141.PDB
^C:\USERS\CDS\DOCUMENTS\GALAXSEEUNITY\GALAXSEEUNITY\SUMMER2018\DLLVISUALSTUDIO - PPPM\UNITYDLLEXAMPLE\RAND_TOOLS.CPP
C:\USERS\CDS\DOCUMENTS\GALAXSEEUNITY\GALAXSEEUNITY\SUMMER2018\DLLVISUALSTUDIO - PPPM\UNITYDLLEXAMPLE\X64\RELEASE\VC141.PDB
^C:\USERS\CDS\DOCUMENTS\GALAXSEEUNITY\GALAXSEEUNITY\SUMMER2018\DLLVISUALSTUDIO - PPPM\UNITYDLLEXAMPLE\PPPM.CPP|C:\USERS\CDS\DOCUMENTS\GALAXSEEUNITY\GALAXSEEUNITY\SUMMER2018\DLLVISUALSTUDIO - PPPM\UNITYDLLEXAMPLE\UNITYDLLEXAMPLE.CPP
C:\USERS\CDS\DOCUMENTS\GALAXSEEUNITY\GALAXSEEUNITY\SUMMER2018\DLLVISUALSTUDIO - PPPM\UNITYDLLEXAMPLE\X64\RELEASE\VC141.PDB
C:\USERS\CDS\DOCUMENTS\GALAXSEEUNITY\GALAXSEEUNITY\SUMMER2018\DLLVISUALSTUDIO - PPPM\UNITYDLLEXAMPLE\X64\RELEASE\PPPM.OBJ
C:\USERS\CDS\DOCUMENTS\GALAXSEEUNITY\GALAXSEEUNITY\SUMMER2018\DLLVISUALSTUDIO - PPPM\UNITYDLLEXAMPLE\X64\RELEASE\UNITYDLLEXAMPLE.OBJ
^C:\USERS\CDS\DOCUMENTS\GALAXSEEUNITY\GALAXSEEUNITY\SUMMER2018\DLLVISUALSTUDIO - PPPM\UNITYDLLEXAMPLE\OCTTREE.CPP|C:\USERS\CDS\DOCUMENTS\GALAXSEEUNITY\GALAXSEEUNITY\SUMMER2018\DLLVISUALSTUDIO - PPPM\UNITYDLLEXAMPLE\UNITYDLLEXAMPLE.CPP
C:\USERS\CDS\DOCUMENTS\GALAXSEEUNITY\GALAXSEEUNITY\SUMMER2018\DLLVISUALSTUDIO - PPPM\UNITYDLLEXAMPLE\X64\RELEASE\VC141.PDB
C:\USERS\CDS\DOCUMENTS\GALAXSEEUNITY\GALAXSEEUNITY\SUMMER2018\DLLVISUALSTUDIO - PPPM\UNITYDLLEXAMPLE\X64\RELEASE\OCTTREE.OBJ
C:\USERS\CDS\DOCUMENTS\GALAXSEEUNITY\GALAXSEEUNITY\SUMMER2018\DLLVISUALSTUDIO - PPPM\UNITYDLLEXAMPLE\X64\RELEASE\UNITYDLLEXAMPLE.OBJ
^C:\USERS\CDS\DOCUMENTS\GALAXSEEUNITY\GALAXSEEUNITY\SUMMER2018\DLLVISUALSTUDIO - PPPM\UNITYDLLEXAMPLE\CUBEINTERP.CPP|C:\USERS\CDS\DOCUMENTS\GALAXSEEUNITY\GALAXSEEUNITY\SUMMER2018\DLLVISUALSTUDIO - PPPM\UNITYDLLEXAMPLE\MEM.CPP|C:\USERS\CDS\DOCUMENTS\GALAXSEEUNITY\GALAXSEEUNITY\SUMMER2018\DLLVISUALSTUDIO - PPPM\UNITYDLLEXAMPLE\OCTTREE.CPP|C:\USERS\CDS\DOCUMENTS\GALAXSEEUNITY\GALAXSEEUNITY\SUMMER2018\DLLVISUALSTUDIO - PPPM\UNITYDLLEXAMPLE\PPPM.CPP|C:\USERS\CDS\DOCUMENTS\GALAXSEEUNITY\GALAXSEEUNITY\SUMMER2018\DLLVISUALSTUDIO - PPPM\UNITYDLLEXAMPLE\RAND_TOOLS.CPP|C:\USERS\CDS\DOCUMENTS\GALAXSEEUNITY\GALAXSEEUNITY\SUMMER2018\DLLVISUALSTUDIO - PPPM\UNITYDLLEXAMPLE\UNITYDLLEXAMPLE.CPP
C:\USERS\CDS\DOCUMENTS\GALAXSEEUNITY\GALAXSEEUNITY\SUMMER2018\DLLVISUALSTUDIO - PPPM\UNITYDLLEXAMPLE\X64\RELEASE\VC141.PDB
C:\USERS\CDS\DOCUMENTS\GALAXSEEUNITY\GALAXSEEUNITY\SUMMER2018\DLLVISUALSTUDIO - PPPM\UNITYDLLEXAMPLE\X64\RELEASE\UNITYDLLEXAMPLE.OBJ
C:\USERS\CDS\DOCUMENTS\GALAXSEEUNITY\GALAXSEEUNITY\SUMMER2018\DLLVISUALSTUDIO - PPPM\UNITYDLLEXAMPLE\X64\RELEASE\RAND_TOOLS.OBJ
C:\USERS\CDS\DOCUMENTS\GALAXSEEUNITY\GALAXSEEUNITY\SUMMER2018\DLLVISUALSTUDIO - PPPM\UNITYDLLEXAMPLE\X64\RELEASE\PPPM.OBJ
C:\USERS\CDS\DOCUMENTS\GALAXSEEUNITY\GALAXSEEUNITY\SUMMER2018\DLLVISUALSTUDIO - PPPM\UNITYDLLEXAMPLE\X64\RELEASE\OCTTREE.OBJ
C:\USERS\CDS\DOCUMENTS\GALAXSEEUNITY\GALAXSEEUNITY\SUMMER2018\DLLVISUALSTUDIO - PPPM\UNITYDLLEXAMPLE\X64\RELEASE\MEM.OBJ
C:\USERS\CDS\DOCUMENTS\GALAXSEEUNITY\GALAXSEEUNITY\SUMMER2018\DLLVISUALSTUDIO - PPPM\UNITYDLLEXAMPLE\X64\RELEASE\CUBEINTERP.OBJ
^C:\USERS\CDS\DOCUMENTS\GALAXSEEUNITY\GALAXSEEUNITY\SUMMER2018\DLLVISUALSTUDIO - PPPM\UNITYDLLEXAMPLE\DLLMAIN.CPP
C:\USERS\CDS\DOCUMENTS\GALAXSEEUNITY\GALAXSEEUNITY\SUMMER2018\DLLVISUALSTUDIO - PPPM\UNITYDLLEXAMPLE\X64\RELEASE\VC141.PDB
C:\USERS\CDS\DOCUMENTS\GALAXSEEUNITY\GALAXSEEUNITY\SUMMER2018\DLLVISUALSTUDIO - PPPM\UNITYDLLEXAMPLE\X64\RELEASE\DLLMAIN.OBJ
^C:\USERS\CDS\DOCUMENTS\GALAXSEEUNITY\GALAXSEEUNITY\SUMMER2018\DLLVISUALSTUDIO - PPPM\UNITYDLLEXAMPLE\OCTTREE.CPP|C:\USERS\CDS\DOCUMENTS\GALAXSEEUNITY\GALAXSEEUNITY\SUMMER2018\DLLVISUALSTUDIO - PPPM\UNITYDLLEXAMPLE\PPPM.CPP|C:\USERS\CDS\DOCUMENTS\GALAXSEEUNITY\GALAXSEEUNITY\SUMMER2018\DLLVISUALSTUDIO - PPPM\UNITYDLLEXAMPLE\UNITYDLLEXAMPLE.CPP
C:\USERS\CDS\DOCUMENTS\GALAXSEEUNITY\GALAXSEEUNITY\SUMMER2018\DLLVISUALSTUDIO - PPPM\UNITYDLLEXAMPLE\X64\RELEASE\VC141.PDB
C:\USERS\CDS\DOCUMENTS\GALAXSEEUNITY\GALAXSEEUNITY\SUMMER2018\DLLVISUALSTUDIO - PPPM\UNITYDLLEXAMPLE\X64\RELEASE\PPPM.OBJ
C:\USERS\CDS\DOCUMENTS\GALAXSEEUNITY\GALAXSEEUNITY\SUMMER2018\DLLVISUALSTUDIO - PPPM\UNITYDLLEXAMPLE\X64\RELEASE\OCTTREE.OBJ
C:\USERS\CDS\DOCUMENTS\GALAXSEEUNITY\GALAXSEEUNITY\SUMMER2018\DLLVISUALSTUDIO - PPPM\UNITYDLLEXAMPLE\X64\RELEASE\UNITYDLLEXAMPLE.OBJ
^C:\USERS\CDS\DOCUMENTS\GALAXSEEUNITY\GALAXSEEUNITY\SUMMER2018\DLLVISUALSTUDIO - PPPM\UNITYDLLEXAMPLE\OCTTREE.CPP
C:\USERS\CDS\DOCUMENTS\GALAXSEEUNITY\GALAXSEEUNITY\SUMMER2018\DLLVISUALSTUDIO - PPPM\UNITYDLLEXAMPLE\X64\RELEASE\VC141.PDB
^C:\USERS\CDS\DOCUMENTS\GALAXSEEUNITY\GALAXSEEUNITY\SUMMER2018\DLLVISUALSTUDIO - PPPM\UNITYDLLEXAMPLE\PPPM.CPP
C:\USERS\CDS\DOCUMENTS\GALAXSEEUNITY\GALAXSEEUNITY\SUMMER2018\DLLVISUALSTUDIO - PPPM\UNITYDLLEXAMPLE\X64\RELEASE\VC141.PDB
^C:\USERS\CDS\DOCUMENTS\GALAXSEEUNITY\GALAXSEEUNITY\SUMMER2018\DLLVISUALSTUDIO - PPPM\UNITYDLLEXAMPLE\UNITYDLLEXAMPLE.CPP
C:\USERS\CDS\DOCUMENTS\GALAXSEEUNITY\GALAXSEEUNITY\SUMMER2018\DLLVISUALSTUDIO - PPPM\UNITYDLLEXAMPLE\X64\RELEASE\VC141.PDB
C:\USERS\CDS\DOCUMENTS\GALAXSEEUNITY\GALAXSEEUNITY\SUMMER2018\DLLVISUALSTUDIO - PPPM\UNITYDLLEXAMPLE\X64\RELEASE\UNITYDLLEXAMPLE.OBJ
