^C:\Users\djoiner\Documents\BITBUCKET_NEW\dataworld\GalaxSeeUnity\DLLVisualStudio\UnityDLLExample\UnityDLLExample.vcxproj
C:\Users\djoiner\Documents\BITBUCKET_NEW\dataworld\GalaxSeeUnity\DLLVisualStudio\Release\UnityDLLExample.lib
C:\Users\djoiner\Documents\BITBUCKET_NEW\dataworld\GalaxSeeUnity\DLLVisualStudio\Release\UnityDLLExample.exp
C:\Users\djoiner\Documents\BITBUCKET_NEW\dataworld\GalaxSeeUnity\DLLVisualStudio\Release\UnityDLLExample.ipdb
C:\Users\djoiner\Documents\BITBUCKET_NEW\dataworld\GalaxSeeUnity\DLLVisualStudio\Release\UnityDLLExample.iobj
