^C:\USERS\DJOINER\DOCUMENTS\BITBUCKET_NEW\DATAWORLD\GALAXSEEUNITY\DLLVISUALSTUDIO\UNITYDLLEXAMPLE\STDAFX.CPP
/c /ZI /nologo /W3 /WX- /diagnostics:classic /Od /D _DEBUG /D _WINDOWS /D _USRDLL /D UNITYDLLEXAMPLE_EXPORTS /D _WINDLL /D _UNICODE /D UNICODE /Gm /EHsc /RTC1 /MDd /GS /fp:precise /Zc:wchar_t /Zc:forScope /Zc:inline /Yc"stdafx.h" /Fp"X64\DEBUG\UNITYDLLEXAMPLE.PCH" /Fo"X64\DEBUG\\" /Fd"X64\DEBUG\VC141.PDB" /Gd /TP C:\USERS\DJOINER\DOCUMENTS\BITBUCKET_NEW\DATAWORLD\GALAXSEEUNITY\DLLVISUALSTUDIO\UNITYDLLEXAMPLE\STDAFX.CPP
^C:\USERS\DJOINER\DOCUMENTS\BITBUCKET_NEW\DATAWORLD\GALAXSEEUNITY\DLLVISUALSTUDIO\UNITYDLLEXAMPLE\DLLMAIN.CPP
/c /ZI /nologo /W3 /WX- /diagnostics:classic /Od /D _DEBUG /D _WINDOWS /D _USRDLL /D UNITYDLLEXAMPLE_EXPORTS /D _WINDLL /D _UNICODE /D UNICODE /Gm /EHsc /RTC1 /MDd /GS /fp:precise /Zc:wchar_t /Zc:forScope /Zc:inline /Fo"X64\DEBUG\\" /Fd"X64\DEBUG\VC141.PDB" /Gd /TP C:\USERS\DJOINER\DOCUMENTS\BITBUCKET_NEW\DATAWORLD\GALAXSEEUNITY\DLLVISUALSTUDIO\UNITYDLLEXAMPLE\DLLMAIN.CPP
^C:\USERS\DJOINER\DOCUMENTS\BITBUCKET_NEW\DATAWORLD\GALAXSEEUNITY\DLLVISUALSTUDIO\UNITYDLLEXAMPLE\UNITYDLLEXAMPLE.CPP
/c /ZI /nologo /W3 /WX- /diagnostics:classic /Od /D _DEBUG /D _WINDOWS /D _USRDLL /D UNITYDLLEXAMPLE_EXPORTS /D _WINDLL /D _UNICODE /D UNICODE /Gm /EHsc /RTC1 /MDd /GS /fp:precise /Zc:wchar_t /Zc:forScope /Zc:inline /Yu"stdafx.h" /Fp"X64\DEBUG\UNITYDLLEXAMPLE.PCH" /Fo"X64\DEBUG\\" /Fd"X64\DEBUG\VC141.PDB" /Gd /TP C:\USERS\DJOINER\DOCUMENTS\BITBUCKET_NEW\DATAWORLD\GALAXSEEUNITY\DLLVISUALSTUDIO\UNITYDLLEXAMPLE\UNITYDLLEXAMPLE.CPP
