^C:\USERS\DJOINER\DOCUMENTS\BITBUCKET_NEW\DATAWORLD\GALAXSEEUNITY\DLLVISUALSTUDIO\UNITYDLLEXAMPLE\X64\DEBUG\DLLMAIN.OBJ|C:\USERS\DJOINER\DOCUMENTS\BITBUCKET_NEW\DATAWORLD\GALAXSEEUNITY\DLLVISUALSTUDIO\UNITYDLLEXAMPLE\X64\DEBUG\STDAFX.OBJ|C:\USERS\DJOINER\DOCUMENTS\BITBUCKET_NEW\DATAWORLD\GALAXSEEUNITY\DLLVISUALSTUDIO\UNITYDLLEXAMPLE\X64\DEBUG\UNITYDLLEXAMPLE.OBJ
C:\WINDOWS\GLOBALIZATION\SORTING\SORTDEFAULT.NLS
C:\PROGRAM FILES (X86)\WINDOWS KITS\10\LIB\10.0.15063.0\UM\X64\KERNEL32.LIB
C:\PROGRAM FILES (X86)\WINDOWS KITS\10\LIB\10.0.15063.0\UM\X64\USER32.LIB
C:\PROGRAM FILES (X86)\WINDOWS KITS\10\LIB\10.0.15063.0\UM\X64\GDI32.LIB
C:\PROGRAM FILES (X86)\WINDOWS KITS\10\LIB\10.0.15063.0\UM\X64\WINSPOOL.LIB
C:\PROGRAM FILES (X86)\WINDOWS KITS\10\LIB\10.0.15063.0\UM\X64\COMDLG32.LIB
C:\PROGRAM FILES (X86)\WINDOWS KITS\10\LIB\10.0.15063.0\UM\X64\ADVAPI32.LIB
C:\PROGRAM FILES (X86)\WINDOWS KITS\10\LIB\10.0.15063.0\UM\X64\SHELL32.LIB
C:\PROGRAM FILES (X86)\WINDOWS KITS\10\LIB\10.0.15063.0\UM\X64\OLE32.LIB
C:\PROGRAM FILES (X86)\WINDOWS KITS\10\LIB\10.0.15063.0\UM\X64\OLEAUT32.LIB
C:\PROGRAM FILES (X86)\WINDOWS KITS\10\LIB\10.0.15063.0\UM\X64\UUID.LIB
C:\PROGRAM FILES (X86)\WINDOWS KITS\10\LIB\10.0.15063.0\UM\X64\ODBC32.LIB
C:\PROGRAM FILES (X86)\WINDOWS KITS\10\LIB\10.0.15063.0\UM\X64\ODBCCP32.LIB
C:\USERS\DJOINER\DOCUMENTS\BITBUCKET_NEW\DATAWORLD\GALAXSEEUNITY\DLLVISUALSTUDIO\UNITYDLLEXAMPLE\X64\DEBUG\DLLMAIN.OBJ
C:\USERS\DJOINER\DOCUMENTS\BITBUCKET_NEW\DATAWORLD\GALAXSEEUNITY\DLLVISUALSTUDIO\UNITYDLLEXAMPLE\X64\DEBUG\STDAFX.OBJ
C:\USERS\DJOINER\DOCUMENTS\BITBUCKET_NEW\DATAWORLD\GALAXSEEUNITY\DLLVISUALSTUDIO\UNITYDLLEXAMPLE\X64\DEBUG\UNITYDLLEXAMPLE.OBJ
C:\PROGRAM FILES (X86)\MICROSOFT VISUAL STUDIO\2017\COMMUNITY\VC\TOOLS\MSVC\14.10.25017\LIB\X64\MSVCRTD.LIB
C:\PROGRAM FILES (X86)\MICROSOFT VISUAL STUDIO\2017\COMMUNITY\VC\TOOLS\MSVC\14.10.25017\LIB\X64\OLDNAMES.LIB
C:\PROGRAM FILES (X86)\MICROSOFT VISUAL STUDIO\2017\COMMUNITY\VC\TOOLS\MSVC\14.10.25017\LIB\X64\VCRUNTIMED.LIB
C:\PROGRAM FILES (X86)\WINDOWS KITS\10\LIB\10.0.15063.0\UCRT\X64\UCRTD.LIB
C:\PROGRAM FILES (X86)\MICROSOFT VISUAL STUDIO\2017\COMMUNITY\VC\TOOLS\MSVC\14.10.25017\BIN\HOSTX86\X64\1033\LINKUI.DLL
C:\PROGRAM FILES (X86)\WINDOWS KITS\10\BIN\10.0.15063.0\X86\RC.EXE
C:\PROGRAM FILES (X86)\MICROSOFT VISUAL STUDIO\2017\COMMUNITY\VC\TOOLS\MSVC\14.10.25017\BIN\HOSTX86\X86\CVTRES.EXE
